<?xml version="1.0" standalone="no"?>
<!DOCTYPE svg PUBLIC "-//W3C//DTD SVG 1.1//EN" "http://www.w3.org/Graphics/SVG/1.1/DTD/svg11.dtd">
<svg xmlns="http://www.w3.org/2000/svg">
<metadata>Copyright (C) 2018 by original authors @ fontello.com</metadata>
<defs>
<font id="capricons" horiz-adv-x="1000" >
<font-face font-family="capricons" font-weight="400" font-stretch="normal" units-per-em="1000" ascent="850" descent="-150" />
<missing-glyph horiz-adv-x="1000" />
<glyph glyph-name="down-small" unicode="&#xe800;" d="M505 346q15-15 15-37t-15-37l-245-245-245 245q-15 15-15 37t15 37 37 15 37-15l120-119 0 395q0 21 15 36t36 15 37-15 16-36l0-395 120 119q15 15 36 15t36-15z" horiz-adv-x="520" />

<glyph glyph-name="left-small" unicode="&#xe801;" d="M595 403q21 0 36-16t15-37-15-37-36-15l-395 0 119-119q15-15 15-37t-15-37-36-15q-23 0-38 15l-245 245 245 245q15 15 37 15t37-15 15-37-15-37l-119-118 395 0z" horiz-adv-x="646" />

<glyph glyph-name="right-small" unicode="&#xe802;" d="M328 595q15 15 36 15t37-15l245-245-245-245q-15-15-36-15-22 0-37 15t-15 37 15 37l120 119-395 0q-22 0-37 15t-16 37 16 37 37 16l395 0-120 118q-15 15-15 37t15 37z" horiz-adv-x="646" />

<glyph glyph-name="up-small" unicode="&#xe803;" d="M260 673l245-245q15-15 15-37t-15-37-36-15-36 15l-120 120 0-395q0-21-16-37t-37-15-36 15-15 37l0 395-120-120q-15-15-37-15t-37 15-15 37 15 37z" horiz-adv-x="520" />

<glyph glyph-name="record-outline" unicode="&#xe804;" d="M313 559q-87 0-148-61t-61-148 61-147 148-62 147 62 61 147-61 148-147 61z m0 104q130 0 221-92t91-221-91-221-221-91-222 91-91 221 91 221 222 92z" horiz-adv-x="625" />

<glyph glyph-name="record" unicode="&#xe805;" d="M313 663q130 0 221-92t91-221-91-221-221-91-222 91-91 221 91 221 222 92z" horiz-adv-x="625" />

<glyph glyph-name="search" unicode="&#xe806;" d="M643 386q0 103-73 176t-177 74-177-74-73-176 73-177 177-73 177 73 73 177z m286-465q0-29-22-50t-50-21q-30 0-50 21l-191 191q-100-69-223-69-80 0-153 31t-125 84-84 125-31 153 31 152 84 126 125 84 153 31 153-31 125-84 84-126 31-152q0-123-69-223l191-191q21-21 21-51z" horiz-adv-x="928.6" />

<glyph glyph-name="mail" unicode="&#xe807;" d="M929 11v428q-18-20-39-36-149-115-238-189-28-24-46-37t-48-28-57-13h-2q-26 0-57 13t-48 28-46 37q-88 74-238 189-21 16-39 36v-428q0-7 6-13t12-5h822q7 0 12 5t6 13z m0 586v14t-1 7-1 7-3 5-5 4-8 2h-822q-7 0-12-6t-6-12q0-94 83-159 107-84 223-176 4-3 20-17t25-21 25-17 28-16 24-5h2q11 0 24 5t28 16 25 17 25 21 20 17q116 92 224 176 30 24 56 65t26 73z m71 21v-607q0-37-26-63t-63-27h-822q-36 0-63 27t-26 63v607q0 37 26 63t63 26h822q37 0 63-26t26-63z" horiz-adv-x="1000" />

<glyph glyph-name="lock" unicode="&#xe808;" d="M179 421h285v108q0 59-42 101t-101 41-101-41-41-101v-108z m464-53v-322q0-22-16-37t-38-16h-535q-23 0-38 16t-16 37v322q0 22 16 38t38 15h17v108q0 102 74 176t176 74 177-74 73-176v-108h18q23 0 38-15t16-38z" horiz-adv-x="642.9" />

<glyph glyph-name="block" unicode="&#xe809;" d="M732 352q0 90-48 164l-421-420q76-50 166-50 62 0 118 25t96 65 65 97 24 119z m-557-167l421 421q-75 50-167 50-83 0-153-40t-110-111-41-153q0-91 50-167z m682 167q0-88-34-168t-91-137-137-92-166-34-167 34-137 92-91 137-34 168 34 167 91 137 137 91 167 34 166-34 137-91 91-137 34-167z" horiz-adv-x="857.1" />

<glyph glyph-name="inbox" unicode="&#xe80a;" d="M571 314h176q0 2-1 5t-2 4l-118 277h-395l-118-277q-1-1-2-4t-1-5h176l53-107h179z m286-16v-269q0-15-10-25t-26-11h-785q-15 0-25 11t-11 25v269q0 34 14 68l133 308q5 14 20 24t29 9h465q14 0 29-9t20-24l133-308q14-34 14-68z" horiz-adv-x="857.1" />

<glyph glyph-name="down-dir" unicode="&#xe80b;" d="M571 457q0-14-10-25l-250-250q-11-11-25-11t-25 11l-250 250q-11 11-11 25t11 25 25 11h500q14 0 25-11t10-25z" horiz-adv-x="571.4" />

<glyph glyph-name="up-dir" unicode="&#xe80c;" d="M571 171q0-14-10-25t-25-10h-500q-15 0-25 10t-11 25 11 26l250 250q10 10 25 10t25-10l250-250q10-11 10-26z" horiz-adv-x="571.4" />

<glyph glyph-name="left-dir" unicode="&#xe80d;" d="M357 600v-500q0-14-10-25t-26-11-25 11l-250 250q-10 11-10 25t10 25l250 250q11 11 25 11t26-11 10-25z" horiz-adv-x="357.1" />

<glyph glyph-name="right-dir" unicode="&#xe80e;" d="M321 350q0-14-10-25l-250-250q-11-11-25-11t-25 11-11 25v500q0 15 11 25t25 11 25-11l250-250q10-10 10-25z" horiz-adv-x="357.1" />

<glyph glyph-name="dot-3" unicode="&#xe80f;" d="M110 460q46 0 78-32t32-78q0-44-32-77t-78-33-78 33-32 77q0 46 32 78t78 32z m350 0q46 0 78-32t32-78q0-44-33-77t-77-33-77 33-33 77q0 46 32 78t78 32z m350 0q46 0 78-32t32-78q0-44-32-77t-78-33-78 33-32 77q0 46 32 78t78 32z" horiz-adv-x="920" />

<glyph glyph-name="user-add" unicode="&#xe810;" d="M573 533q0-108-77-184t-183-76-184 76-76 184 76 183 184 77 183-77 77-183z m-260-626q-140 0-227 32t-86 72q0 83 86 146t227 63q136 0 224-63t88-146q0-41-89-72t-223-32z m625 469q21 0 36-15t16-37-16-36-36-15l-104 0 0-105q0-22-16-37t-37-15-37 15-15 37l0 105-104 0q-21 0-37 15t-15 36 15 37 37 15l104 0 0 104q0 21 15 37t37 16 37-16 16-37l0-104 104 0z" horiz-adv-x="990" />

<glyph glyph-name="user-delete" unicode="&#xe811;" d="M938 273l-313 0q-21 0-37 15t-15 36 15 37 37 15l313 0q21 0 36-15t16-37-16-36-36-15z m-625 520q107 0 183-77t77-183-77-184-183-76-184 76-76 184 76 183 184 77z m0-573q136 0 224-63t88-146q0-41-89-72t-223-32q-140 0-227 32t-86 72q0 83 86 146t227 63z" horiz-adv-x="990" />

<glyph glyph-name="users" unicode="&#xe812;" d="M860 533q0-108-77-184t-184-76-184 76-76 184 76 183 184 77 184-77 77-183z m286-183q0-54-38-92t-93-38-92 38-38 92 38 92 92 38 93-38 38-92z m-131-161q80 0 131-34t52-79q0-22-53-40t-130-17q-42 0-82 6 0-2 0-7t1-7q0-41-96-72t-239-32q-150 0-242 32t-92 72q0 3 1 8t0 7q-50-7-83-7-82 0-132 17t-51 40q0 45 50 79t133 34q98 0 151-50 99 81 265 81t265-81q52 50 151 50z m-702 161q0-54-38-92t-92-38-93 38-37 92 37 92 93 38q53 0 91-38t39-92z" horiz-adv-x="1198" />

<glyph glyph-name="user" unicode="&#xe813;" d="M313 793q107 0 183-77t77-183-77-184-183-76-184 76-76 184 76 183 184 77z m-313-782q0 83 86 146t227 63q136 0 224-63t88-146q0-41-89-72t-223-32q-140 0-227 32t-86 72z" horiz-adv-x="625" />

<glyph glyph-name="cog" unicode="&#xe814;" d="M250 87q-5 20-24 31t-40 5l-76-22q-21-7-44 3t-32 28l-27 45q-10 19-6 42t19 39l56 55q15 15 15 36t-15 37l-56 55q-16 15-19 38t8 43l25 46q10 19 32 28t44 2l76-21q21-6 40 5t24 31l19 76q6 22 25 37t40 15l51 0q21 0 40-15t25-37l20-76q6-21 24-31t38-5l77 21q21 6 43-2t33-28l26-46q10-19 6-43t-18-38l-57-55q-16-15-15-37t15-36l57-55q15-15 18-39t-6-42l-26-45q-10-19-33-28t-43-3l-77 22q-20 5-38-5t-24-31l-20-78q-6-21-25-35t-40-15l-51 0q-22 0-40 15t-25 35z m110 366q-44 0-75-31t-30-73 30-73 75-30q42 0 73 30t31 73-31 74-73 30z" horiz-adv-x="718" />

<glyph glyph-name="direction" unicode="&#xe815;" d="M328 47l-71 214-214 71q-27 9-37 23t-2 28 34 27l593 276q40 17 54 3t-3-54l-278-593q-11-26-25-34t-28 2-23 37z" horiz-adv-x="691" />

<glyph glyph-name="facebook" unicode="&#xe816;" d="M313 454l156 0 0-156-156 0 0-364-157 0 0 364-156 0 0 156 156 0 0 66q0 50 16 102t43 81q58 64 145 64l109 0 0-157-109 0q-20 0-34-13t-13-33l0-110z" horiz-adv-x="469" />

<glyph glyph-name="twitter" unicode="&#xe817;" d="M456 539q0 80 57 135t137 56q85 0 139-59 60 13 122 45-20-67-83-106 53 8 110 31-39-58-97-101l0-24q0-136-60-255-60-121-190-206t-296-85q-162 0-295 86 20-2 48-2 133 0 237 81-65 1-113 40t-66 95q13-5 35-5t50 6q-65 14-108 67t-44 125q36-20 86-24-86 60-86 161 0 48 26 95 158-191 398-199-7 22-7 43z" horiz-adv-x="938" />

<glyph glyph-name="picture" unicode="&#xe818;" d="M0-68l0 836 1000 0 0-836-1000 0z m76 78l848 0 0 680-848 0 0-680z m90 80l0 59 150 195 102-86 193 291 223-228 0-231-668 0z m0 416q0 37 24 62t62 24q33 0 58-24t24-62q0-33-24-57t-58-25q-37 0-62 25t-24 57z" horiz-adv-x="1000" />

<glyph glyph-name="camera" unicode="&#xe819;" d="M0-27l0 627 295 0 31 127 362 0 31-127 281 0 0-627-1000 0z m221 346q0-117 83-199t199-82 198 82 82 199-82 199-198 82-199-82-83-199z m84 0q0 82 57 140t140 59 141-59 58-140-58-140-141-57-140 57-57 140z m527 139l143 0 0 82-143 0 0-82z" horiz-adv-x="1000" />

<glyph glyph-name="video-chat" unicode="&#xe81a;" d="M0 96l0 713 1000 0 0-713-473 0-320-205 0 205-207 0z m219 201l402 0 0 125 160-125 0 332-160-123 0 123-402 0 0-332z" horiz-adv-x="1000" />

<glyph glyph-name="video" unicode="&#xe81b;" d="M0-29l0 758 1000 0 0-758-1000 0z m123 123l754 0 0 512-754 0 0-512z m266 82l0 340 293-170z" horiz-adv-x="1000" />

<glyph glyph-name="thumbs-up" unicode="&#xe81c;" d="M582 480q2-6 58-13t108-24 52-47q0-72-61-284t-107-212q-144 0-288 42t-144 88l0 342q0 14 15 34t46 45 53 41 62 43 46 31q50 34 104 100t85 104 41 26q48-76 29-137t-59-119-40-60z m-432-4q14 0 0-14-50-50-50-104l0-318q0-50 52-104 10-10-2-10-26 0-55 8t-62 45-33 99l0 242q0 62 33 100t63 47 54 9z" horiz-adv-x="800" />

<glyph glyph-name="attention-circled" unicode="&#xe81d;" d="M429 779q116 0 215-58t156-156 57-215-57-215-156-156-215-58-216 58-155 156-58 215 58 215 155 156 216 58z m71-696v106q0 8-5 13t-12 5h-107q-8 0-13-5t-6-13v-106q0-8 6-13t13-6h107q7 0 12 6t5 13z m-1 192l10 346q0 7-6 10-5 5-13 5h-123q-8 0-13-5-6-3-6-10l10-346q0-6 5-10t14-4h103q8 0 13 4t6 10z" horiz-adv-x="857.1" />

<glyph glyph-name="comment-1" unicode="&#xe81e;" d="M0 96l0 713 1000 0 0-713-473 0-320-205 0 205-207 0z" horiz-adv-x="1000" />

<glyph glyph-name="location" unicode="&#xe81f;" d="M429 493q0 59-42 101t-101 42-101-42-42-101 42-101 101-42 101 42 42 101z m142 0q0-61-18-100l-203-432q-9-18-27-29t-37-11-38 11-26 29l-204 432q-18 39-18 100 0 118 84 202t202 84 202-84 83-202z" horiz-adv-x="571.4" />

<glyph glyph-name="help-circled" unicode="&#xe820;" d="M454 810q190 2 326-130t140-322q2-190-131-327t-323-141q-190-2-327 131t-139 323q-4 190 130 327t324 139z m-2-740q30 0 49 19t19 47q2 30-17 49t-49 19l-2 0q-28 0-47-18t-21-46q0-30 19-49t47-21l2 0z m166 328q26 34 26 78 0 78-54 116-52 38-134 38-64 0-104-26-68-42-72-146l0-4 110 0 0 4q0 26 16 54 16 24 54 24 40 0 52-20 16-20 16-44 0-18-16-40-8-12-20-20l-6-4q-6-4-16-11t-20-15-21-17-17-17q-14-20-18-78l0-8 108 0 0 4q0 12 4 28 6 20 28 36l28 18q46 34 56 50z" horiz-adv-x="920" />

<glyph glyph-name="info-circled" unicode="&#xe821;" d="M454 810q190 2 326-130t140-322q2-190-131-327t-323-141q-190-2-327 131t-139 323q-4 190 130 327t324 139z m52-152q-42 0-65-24t-23-50q-2-28 15-44t49-16q38 0 61 22t23 54q0 58-60 58z m-120-594q30 0 84 26t106 78l-18 24q-48-36-72-36-14 0-4 38l42 160q26 96-22 96-30 0-89-29t-115-75l16-26q52 34 74 34 12 0 0-34l-36-152q-26-104 34-104z" horiz-adv-x="920" />

<glyph glyph-name="star-filled" unicode="&#xe822;" d="M297 498q69 152 114 252 6 15 24 15t23-15l114-252q164-18 274-30 15-3 21-18t-6-27l-204-187q33-161 55-270 3-15-10-25t-27-2l-240 136q-144-81-240-136-15-9-28 2t-11 25l56 270q-122 112-204 187-12 11-6 26t21 19z" horiz-adv-x="869" />

<glyph glyph-name="comment" unicode="&#xe823;" d="M700 700q42 0 71-29t29-71l0-350q0-40-29-70t-71-30l-200 0 0-150-200 150-200 0q-40 0-70 30t-30 70l0 350q0 42 30 71t70 29l600 0z" horiz-adv-x="800" />

<glyph glyph-name="flag-1" unicode="&#xe824;" d="M0-79l0 803q68 41 136 51t124-3 112-35 112-43 114-31 124 2 137 59l0-459q-52-53-109-67t-110 1-117 40-124 51-135 35-151-11l0-393-113 0z" horiz-adv-x="859" />

<glyph glyph-name="download" unicode="&#xe825;" d="M968 198q18-10 27-32t3-40l-28-154q-4-20-22-33t-40-13l-816 0q-22 0-40 13t-22 33l-28 154q-10 48 32 72l158 108 98 0-170-130 178 0q8 0 12-8l40-110 300 0 40 110q8 8 12 8l178 0-170 130 98 0z m-208 322l-260-244-260 244 166 0 0 256 190 0 0-256 164 0z" horiz-adv-x="1000" />

<glyph glyph-name="ok-1" unicode="&#xe826;" d="M0 339q0-35 24-60l246-239q24-25 60-25 36 0 60 25l505 495q25 24 25 59t-25 58q-25 25-60 25t-60-25l-445-435-185 181q-25 24-60 24t-61-24q-24-24-24-59z" horiz-adv-x="920.4" />

<glyph glyph-name="tag" unicode="&#xe827;" d="M250 600q0 30-21 51t-50 20-51-20-21-51 21-50 51-21 50 21 21 50z m595-321q0-30-20-51l-274-274q-22-21-51-21-30 0-50 21l-399 399q-21 21-36 57t-15 65v232q0 29 21 50t50 22h233q29 0 65-15t57-36l399-399q20-21 20-50z" horiz-adv-x="857.1" />

<glyph glyph-name="reply-all" unicode="&#xe828;" d="M362 556l-212-188 212-196 0-138-362 334 362 322 0-134z m250-58q104 0 182-50t115-122 60-144 27-122l4-50q-86 154-168 198t-220 44l0-218-362 334 362 322 0-192z" horiz-adv-x="1000" />

<glyph glyph-name="chart-line" unicode="&#xe829;" d="M34 284q-42 10-32 56 10 42 54 32l98-24-52-80z m890-12q14 12 33 11t31-15q32-32-2-64l-252-226q-12-12-30-12-14 0-28 10l-286 220-54 14 50 80 36-8q12-4 16-8l264-204z m-490 220l-350-550q-12-22-38-22-12 0-24 8-16 10-20 29t6 33l374 588q8 16 28 20 18 6 36-6l246-156 226 326q10 16 28 19t34-9q38-24 12-62l-252-362q-24-36-62-12z" horiz-adv-x="1003" />

<glyph glyph-name="plus" unicode="&#xe82a;" d="M550 400q30 0 30-50t-30-50l-210 0 0-210q0-30-50-30t-50 30l0 210-210 0q-30 0-30 50t30 50l210 0 0 210q0 30 50 30t50-30l0-210 210 0z" horiz-adv-x="580" />

<glyph glyph-name="cancel-circled" unicode="&#xe82b;" d="M420 770q174 0 297-123t123-297-123-297-297-123-297 123-123 297 123 297 297 123z m86-420l154 154-86 86-154-152-152 152-88-86 154-154-154-152 88-86 152 152 154-152 86 86z" horiz-adv-x="840" />

<glyph glyph-name="cancel-squared" unicode="&#xe82c;" d="M700 750q42 0 71-29t29-71l0-600q0-40-29-70t-71-30l-600 0q-40 0-70 30t-30 70l0 600q0 42 30 71t70 29l600 0z m-146-638l86 86-154 152 154 154-86 86-154-152-152 152-88-86 154-154-154-152 88-86 152 152z" horiz-adv-x="800" />

<glyph glyph-name="plus-circled" unicode="&#xe82d;" d="M420 770q174 0 297-123t123-297-123-297-297-123-297 123-123 297 123 297 297 123z m52-470l200 0 0 102-200 0 0 202-102 0 0-202-202 0 0-102 202 0 0-202 102 0 0 202z" horiz-adv-x="840" />

<glyph glyph-name="plus-squared" unicode="&#xe82e;" d="M700 750q42 0 71-29t29-71l0-600q0-40-29-70t-71-30l-600 0q-40 0-70 30t-30 70l0 600q0 42 30 71t70 29l600 0z m-50-450l0 100-200 0 0 200-100 0 0-200-200 0 0-100 200 0 0-200 100 0 0 200 200 0z" horiz-adv-x="800" />

<glyph glyph-name="minus" unicode="&#xe82f;" d="M550 400q30 0 30-50t-30-50l-520 0q-30 0-30 50t30 50l520 0z" horiz-adv-x="580" />

<glyph glyph-name="minus-circled" unicode="&#xe830;" d="M420 770q174 0 297-123t123-297-123-297-297-123-297 123-123 297 123 297 297 123z m252-368l-504 0 0-102 504 0 0 102z" horiz-adv-x="840" />

<glyph glyph-name="minus-squared" unicode="&#xe831;" d="M700 750q42 0 71-29t29-71l0-600q0-40-29-70t-71-30l-600 0q-40 0-70 30t-30 70l0 600q0 42 30 71t70 29l600 0z m-50-450l0 100-500 0 0-100 500 0z" horiz-adv-x="800" />

<glyph glyph-name="back" unicode="&#xe832;" d="M750 540q40 0 70-29t30-71l0-290q0-40-30-70t-70-30l-690 0 0 140 650 0 0 210-500 0 0-110-210 180 210 180 0-110 540 0z" horiz-adv-x="850" />

<glyph glyph-name="attach" unicode="&#xe833;" d="M244-140q-102 0-170 72-72 70-74 166t84 190l496 496q80 80 174 54 44-12 79-47t47-79q26-96-54-176l-474-474q-40-40-88-46-48-4-80 28-30 24-27 74t47 92l332 334q24 26 50 0t0-50l-332-332q-44-44-20-70 12-8 24-6 24 4 46 26l474 474q50 50 34 108-16 60-76 76-54 14-108-36l-494-494q-66-76-64-143t52-117q50-48 117-50t141 62l496 494q24 24 50 0 26-22 0-48l-496-496q-82-82-186-82z" horiz-adv-x="939" />

<glyph glyph-name="eye" unicode="&#xe834;" d="M929 314q-85 132-213 197 34-58 34-125 0-103-73-177t-177-73-177 73-73 177q0 67 34 125-128-65-213-197 75-114 187-182t242-68 243 68 186 182z m-402 215q0 11-8 19t-19 7q-70 0-120-50t-50-119q0-11 8-19t19-8 19 8 8 19q0 48 34 82t82 34q11 0 19 8t8 19z m473-215q0-19-11-38-78-129-210-206t-279-77-279 77-210 206q-11 19-11 38t11 39q78 128 210 205t279 78 279-78 210-205q11-20 11-39z" horiz-adv-x="1000" />

<glyph glyph-name="megaphone" unicode="&#xe835;" d="M0 344l0 123q2 35 26 60t58 24l270 0q138 8 272 65t229 152q36-2 59-26t23-58l0-199q28-8 45-30t18-50q-2-30-19-51t-44-27l0-201q-1-36-26-59t-56-24q-207 184-449 211-66-33-53-127t77-142q-28-47-96-52t-105 30q-16 45-25 76t-16 71-7 78 10 72l-107 0q-35 2-60 27t-24 57z m438-10q240-44 419-183l0 508q-203-151-419-182l0-143z" horiz-adv-x="1000" />

<glyph glyph-name="clock" unicode="&#xe836;" d="M460 810q190 0 325-135t135-325-135-325-325-135-325 135-135 325 135 325 325 135z m0-820q150 0 255 106t105 254q0 150-105 255t-255 105q-148 0-254-105t-106-255q0-148 106-254t254-106z m36 620l0-244 150-150-50-50-170 170 0 274 70 0z" horiz-adv-x="920" />

<glyph glyph-name="export-1" unicode="&#xe837;" d="M750 60l0 56 100 82 0-188q0-20-15-35t-35-15l-750 0q-20 0-35 15t-15 35l0 550q0 22 14 36t36 14l288 0q-32-24-59-49t-39-39l-10-12-130 0 0-450 650 0z m-82 348q-166 0-242-41t-160-181q0 8 1 22t9 56 22 79 44 83 70 79 107 56 149 23l0 156 332-250-332-260 0 178z" horiz-adv-x="1000" />

<glyph glyph-name="chart-bar" unicode="&#xe838;" d="M750 800q22 0 36-15t14-35l0-850-200 0 0 850q0 50 40 50l110 0z m-300-300q22 0 36-15t14-35l0-550-200 0 0 550q0 50 40 50l110 0z m-300-300q22 0 36-15t14-35l0-250-200 0 0 250q0 50 40 50l110 0z" horiz-adv-x="800" />

<glyph glyph-name="megaphone-1" unicode="&#xe839;" d="M792 500q58-138 67-258t-39-140q-28-12-61 3t-65 40-99 41-149 8q-28-4-42-19t-6-37q22-56 46-108 4-10 24-22t24-20q14-34-22-46-50-22-102-40-30-10-54 42-32 76-58 132-6 12-34 17t-46 31q-30-10-38-14-34-12-74 12t-54 60q-17 32-5 79t43 61q126 52 213 108t124 103 59 92 25 78 15 59 36 36q48 20 130-70t142-228z m-28-300q8 4 10 38t-11 98-41 128q-28 66-67 123t-67 84-36 23-10-42 10-105 40-133 68-119 68-76 36-19z" horiz-adv-x="860" />

<glyph glyph-name="globe" unicode="&#xe83a;" d="M429 779q116 0 215-58t156-156 57-215-57-215-156-156-215-58-216 58-155 156-58 215 58 215 155 156 216 58z m153-291q-2-1-6-5t-7-6q1 0 2 3t3 6 2 4q3 4 12 8 8 4 29 7 19 5 29-6-1 1 5 7t8 7q2 1 8 3t9 4l1 12q-7-1-10 4t-3 12q0-2-4-5 0 4-2 5t-7-1-5-1q-5 2-8 5t-5 9-2 8q-1 3-5 6t-5 6q-1 1-2 3t-1 4-3 3-3 1-4-3-4-5-2-3q-2 1-4 1t-2-1-3-1-3-2q-1-2-4-2t-5-1q8 3-1 6-5 2-9 2 6 2 5 6t-5 8h3q-1 2-5 5t-10 5-7 3q-5 3-19 5t-18 1q-3-4-3-6t2-8 2-7q1-3-3-7t-3-7q0-4 7-9t6-12q-2-4-9-9t-9-6q-3-5-1-11t6-9q1-1 1-2t-2-3-3-2-4-2l-1-1q-7-3-12 3t-7 15q-4 14-9 17-13 4-16-1-3 7-23 15-14 5-33 2 4 0 0 8-4 9-10 7 1 3 2 10t0 7q2 8 7 13 1 1 4 5t5 7 1 4q19-3 28 6 2 3 6 9t6 10q5 3 8 3t8-3 8-3q8-1 8 6t-4 11q7 0 2 10-2 4-5 5-6 2-15-3-4-2 2-4-1 0-6-6t-9-10-9 3q0 0-3 7t-5 8q-5 0-9-9 1 5-6 9t-14 4q11 7-4 15-4 3-12 3t-11-2q-2-4-3-7t3-4 6-3 6-2 5-2q8-6 5-8-1 0-5-2t-6-2-4-2q-1-3 0-8t-1-8q-3 3-5 10t-4 9q4-5-14-3l-5 0q-3 0-9-1t-12-1-7 5q-3 4 0 11 0 2 2 1-2 2-6 5t-6 5q-25-8-52-23 3 0 6 1 3 1 8 4t5 3q19 7 24 4l3 2q7-9 11-14-4 3-17 1-11-3-12-7 4-6 2-10-2 2-6 6t-8 6-8 3q-9 0-13-1-81-45-131-124 4-4 7-4 2-1 3-5t1-6 6 1q5-4 2-10 1 0 25-15 10-10 11-12 2-6-5-10-1 1-5 5t-5 2q-2-3 0-10t6-7q-4 0-5-9t-2-20 0-13l1-1q-2-6 3-19t12-11q-7-1 11-24 3-4 4-5 2-1 7-4t9-6 5-5q2-3 6-13t8-13q-2-3 5-11t6-13q-1 0-2-1t-1 0q2-4 9-8t8-7q1-2 1-6t2-6 4-1q2 11-13 35-8 13-9 16-2 2-4 8t-2 8q1 0 3 0t5-2 4-3 1-1q-1-4 1-10t7-10 10-11 6-7q4-4 8-11t0-8q5 0 11-5t10-11q3-5 4-15t3-13q1-4 5-8t7-5l9-5t7-3q3-2 10-6t12-7q6-2 9-2t8 1 8 2q8 1 16-8t12-12q20-10 30-6-1 0 1-4t4-9 5-8 3-5q3-3 10-8t10-8q4 2 4 5-1-5 4-11t10-6q8 2 8 18-17-8-27 10 0 0-2 3t-2 5-1 4 0 5 2 1q5 0 6 2t-1 7-2 8q-1 4-6 11t-7 8q-3-5-9-4t-9 5q0-1-1-3t-1-4q-7 0-8 0 1 2 1 10t2 13q1 2 3 6t5 9 2 7-3 5-9 1q-11 0-15-11-1-2-2-6t-2-6-5-4q-4-2-14-1t-13 3q-8 4-13 16t-5 20q0 6 1 15t2 14-3 14q2 1 5 5t5 6q2 1 3 1t3 0 2 1 1 3q0 1-2 2-1 1-2 1 4-1 16 1t15-1q9-6 12 1 0 1-1 6t0 7q3-15 16-5 2-1 9-3t9-2q2-1 4-3t3-3 3 0 5 4q5-8 7-13 6-23 10-25 4-2 6-1t3 5 0 8-1 7l-1 5v10l0 4q-8 2-10 7t0 10 9 10q0 1 4 2t9 4 7 4q12 11 8 20 4 0 6 5 0 0-2 2t-5 2-2 2q5 2 1 8 3 2 4 7t4 5q5-6 12-1 5 5 1 9 2 4 11 6t10 5q4-1 5 1t0 7 2 7q2 2 9 5t7 2l9 7q2 2 0 2 10-1 18 6 5 6-4 11 2 4-1 5t-9 4q2 0 7 0t5 1q9 5-3 9-10 2-24-7z m-91-490q115 21 195 106-1 2-7 2t-7 2q-10 4-13 5 1 4-1 7t-5 5-7 5-6 4q-1 1-4 3t-4 3-4 2-5 2-5-1l-2-1q-2 0-3-1t-3-2-2-1 0-2q-12 10-20 13-3 0-6 3t-6 4-6 0-6-3q-3-3-4-9t-1-7q-4 3 0 10t1 10q-1 3-6 2t-6-2-7-5-5-3-4-3-5-5q-2-2-4-6t-2-6q-1 2-7 3t-5 3q1-5 2-19t3-22q4-17-7-26-15-14-16-23-2-12 7-14 0-4-5-12t-4-12q0-3 2-9z" horiz-adv-x="857.1" />

<glyph glyph-name="calendar" unicode="&#xe83b;" d="M71-79h161v161h-161v-161z m197 0h178v161h-178v-161z m-197 197h161v178h-161v-178z m197 0h178v178h-178v-178z m-197 214h161v161h-161v-161z m411-411h179v161h-179v-161z m-214 411h178v161h-178v-161z m428-411h161v161h-161v-161z m-214 197h179v178h-179v-178z m-196 482v161q0 7-6 12t-12 6h-36q-7 0-12-6t-6-12v-161q0-7 6-13t12-5h36q7 0 12 5t6 13z m410-482h161v178h-161v-178z m-214 214h179v161h-179v-161z m214 0h161v161h-161v-161z m18 268v161q0 7-5 12t-13 6h-35q-7 0-13-6t-5-12v-161q0-7 5-13t13-5h35q8 0 13 5t5 13z m215 36v-715q0-29-22-50t-50-21h-786q-29 0-50 21t-21 50v715q0 29 21 50t50 21h72v54q0 37 26 63t63 26h36q37 0 63-26t26-63v-54h214v54q0 37 27 63t63 26h35q37 0 64-26t26-63v-54h71q29 0 50-21t22-50z" horiz-adv-x="928.6" />

<glyph glyph-name="resize-small" unicode="&#xe83c;" d="M429 314v-250q0-14-11-25t-25-10-25 10l-81 81-185-186q-5-5-13-5t-12 5l-64 64q-6 6-6 13t6 13l185 185-80 80q-11 11-11 25t11 25 25 11h250q14 0 25-11t11-25z m421 375q0-7-6-12l-185-186 80-80q11-11 11-25t-11-25-25-11h-250q-14 0-25 11t-10 25v250q0 14 10 25t25 10 25-10l81-80 185 185q6 5 13 5t13-5l63-64q6-5 6-13z" horiz-adv-x="857.1" />

<glyph glyph-name="phone" unicode="&#xe83d;" d="M786 158q0-15-6-39t-12-38q-11-28-68-60-52-28-103-28-15 0-30 2t-32 7-26 8-31 11-28 10q-54 20-97 47-71 44-148 120t-120 148q-27 43-46 97-2 5-10 28t-12 31-8 26-7 32-2 29q0 52 29 104 31 57 59 68 14 6 38 12t39 6q8 0 12-2 10-3 30-42 6-11 16-31t20-35 17-30q2-2 10-14t12-20 4-16q0-11-16-27t-35-31-34-30-16-25q0-5 3-13t4-11 8-14 7-10q42-77 97-132t131-97q1 0 10-6t14-8 11-5 13-2q10 0 25 16t30 34 31 35 28 16q7 0 15-4t20-12 14-10q14-8 30-17t36-20 30-17q39-19 42-29 2-4 2-12z" horiz-adv-x="785.7" />

<glyph glyph-name="hash" unicode="&#xf029;" d="M2 207q4 25 25 42t46 16h149l36 170h-135q-28 0-46 21-17 22-12 51 5 25 26 42t46 16h149l31 150q6 26 26 42t46 17q30 0 47-21t11-51l-29-137h167l32 150q5 26 26 42t46 17q29 0 46-21 18-21 11-51l-29-137h136q28 0 46-21 17-22 11-51-5-25-25-42t-46-16h-149l-37-170h136q28 0 47-21 17-22 11-51-6-26-26-42t-46-17h-149l-32-150q-5-25-25-42t-46-16q-29 0-47 21-17 22-11 50l29 137h-167l-33-150q-5-25-25-42t-46-16q-28 0-46 21-17 22-12 50l30 137h-136q-29 0-46 22-18 21-11 51z m352 58h168l36 170h-168z" horiz-adv-x="912.1" />

<glyph glyph-name="instagram" unicode="&#xf05d;" d="M0 57v287h215q24-83 94-136t160-54 159 54 94 136h215v-287q0-73-51-124t-125-52h-585q-73 0-124 52t-52 124z m0 433v153q0 72 52 124t124 51h585q73 0 125-51t51-124v-153h-215q-24 84-94 137t-159 54-160-54-94-137h-215z m323-72q0-61 42-104t104-43q61 0 103 43t43 104-43 103-103 43q-61 0-104-43t-42-103z" horiz-adv-x="937.5" />

<glyph glyph-name="menu" unicode="&#xf0c9;" d="M857 100v-71q0-15-10-25t-26-11h-785q-15 0-25 11t-11 25v71q0 15 11 25t25 11h785q15 0 26-11t10-25z m0 286v-72q0-14-10-25t-26-10h-785q-15 0-25 10t-11 25v72q0 14 11 25t25 10h785q15 0 26-10t10-25z m0 285v-71q0-14-10-25t-26-11h-785q-15 0-25 11t-11 25v71q0 15 11 26t25 10h785q15 0 26-10t10-26z" horiz-adv-x="857.1" />

<glyph glyph-name="bell-alt" unicode="&#xf0f3;" d="M509-96q0 8-9 8-33 0-57 24t-23 57q0 9-9 9t-9-9q0-41 29-70t69-28q9 0 9 9z m455 160q0-29-21-50t-50-21h-250q0-59-42-101t-101-42-101 42-42 101h-250q-29 0-50 21t-21 50q28 24 51 49t47 67 42 89 27 115 11 145q0 84 66 157t171 89q-5 10-5 21 0 23 16 38t38 16 38-16 16-38q0-11-5-21 106-16 171-89t66-157q0-78 11-145t28-115 41-89 48-67 50-49z" horiz-adv-x="1000" />

<glyph glyph-name="angle-left" unicode="&#xf104;" d="M350 546q0-7-6-12l-219-220 219-219q6-6 6-13t-6-13l-28-28q-5-5-12-5t-13 5l-260 261q-6 5-6 12t6 13l260 260q5 6 13 6t12-6l28-28q6-5 6-13z" horiz-adv-x="357.1" />

<glyph glyph-name="angle-right" unicode="&#xf105;" d="M332 314q0-7-5-12l-261-261q-5-5-12-5t-13 5l-28 28q-6 6-6 13t6 13l219 219-219 220q-6 5-6 12t6 13l28 28q5 6 13 6t12-6l261-260q5-5 5-13z" horiz-adv-x="357.1" />

<glyph glyph-name="angle-up" unicode="&#xf106;" d="M600 189q0-7-6-12l-28-28q-5-6-12-6t-13 6l-220 219-219-219q-5-6-13-6t-12 6l-28 28q-6 5-6 12t6 13l260 260q5 6 12 6t13-6l260-260q6-5 6-13z" horiz-adv-x="642.9" />

<glyph glyph-name="angle-down" unicode="&#xf107;" d="M600 439q0-7-6-12l-260-261q-5-5-13-5t-12 5l-260 261q-6 5-6 12t6 13l28 28q5 6 12 6t13-6l219-219 220 219q5 6 13 6t12-6l28-28q6-5 6-13z" horiz-adv-x="642.9" />

<glyph glyph-name="sliders" unicode="&#xf1de;" d="M196 64v-71h-196v71h196z m197 72q14 0 25-11t11-25v-143q0-14-11-25t-25-11h-143q-14 0-25 11t-11 25v143q0 15 11 25t25 11h143z m89 214v-71h-482v71h482z m-357 286v-72h-125v72h125z m732-572v-71h-411v71h411z m-536 643q15 0 26-10t10-26v-142q0-15-10-25t-26-11h-142q-15 0-25 11t-11 25v142q0 15 11 26t25 10h142z m358-286q14 0 25-10t10-25v-143q0-15-10-25t-25-11h-143q-15 0-25 11t-11 25v143q0 14 11 25t25 10h143z m178-71v-71h-125v71h125z m0 286v-72h-482v72h482z" horiz-adv-x="857.1" />

<glyph glyph-name="trash" unicode="&#xf1f8;" d="M286 82v393q0 8-5 13t-13 5h-36q-8 0-13-5t-5-13v-393q0-8 5-13t13-5h36q8 0 13 5t5 13z m143 0v393q0 8-5 13t-13 5h-36q-8 0-13-5t-5-13v-393q0-8 5-13t13-5h36q8 0 13 5t5 13z m142 0v393q0 8-5 13t-12 5h-36q-8 0-13-5t-5-13v-393q0-8 5-13t13-5h36q7 0 12 5t5 13z m-303 554h250l-27 65q-4 5-9 6h-177q-6-1-10-6z m518-18v-36q0-8-5-13t-13-5h-54v-529q0-46-26-80t-63-34h-464q-37 0-63 33t-27 79v531h-53q-8 0-13 5t-5 13v36q0 8 5 13t13 5h172l39 93q9 21 31 35t44 15h178q23 0 44-15t30-35l39-93h173q8 0 13-5t5-13z" horiz-adv-x="785.7" />

<glyph glyph-name="user-circle" unicode="&#xf2bd;" d="M850 103q-12 86-49 144t-103 66q-37-42-89-65t-109-23-109 23-89 65q-66-9-103-66t-49-144q59-84 151-133t199-49 199 49 151 133z m-136 390q0 89-62 151t-152 63-151-63-63-151 63-152 151-62 152 62 62 152z m286-143q0-102-40-194t-106-160-159-106-195-40q-102 0-194 40t-160 106-106 160-40 194 40 194 106 160 160 106 194 40 194-40 160-106 106-160 40-194z" horiz-adv-x="1000" />
</font>
</defs>
</svg>