{
    "/js/app.js": "/js/app.js?id=8d27590b0c051e387e37",
    "/css/app.css": "/css/app.css?id=7dd22f9805f97213811c",
    "/css/landing.css": "/css/landing.css?id=d41d8cd98f00b204e980",
    "/js/landing.js": "/js/landing.js?id=b406ed8c91623e5908e6",
    "/js/_common.js": "/js/_common.js?id=e077f6bbaf9b57e603d7",
    "/css/_common.css": "/css/_common.css?id=2ce2777c605607267314"
}